Name,min,max,IQ1,IQ2,IQ3,mean,curtosis,skewness,P(X=0),pdf name,pdf parameters,KS,min wo0,max wo0,IQ1 wo0,IQ2 wo0,IQ3 wo0,mean wo0,curtosis wo0,skewness wo0,std,std wo0
B_UO_10_I,0,1250,0.0,0.0,0.0,5.313286713286713,229.74581823922506,14.593821035893145,0.9867132867132867,,,,20,1250,100.0,200.0,600.0,399.89473684210526,-0.5244196121600928,0.8951460682753141,64.03528400817248,398.7208567875863
B_UO_10_D,0,1581,0.0,0.0,0.0,1.1055944055944056,1429.9999999999984,37.81534080237802,,,,,,,,,,,,,41.80842923675507,
B_UT_20_I,0,6000,0.0,0.0,0.0,33.495104895104895,190.42543705809592,12.76215013540247,0.9755244755244755,,,,100,6000,465.5,700.0,1790.5,1368.5142857142857,2.6874033272793296,1.7217848392807844,303.35504798910443,1409.6094029579835
B_UO_10_A,0,85590,1100.0,2000.0,3250.0,3553.009090909091,63.84670551326197,6.885862896396837,0.07692307692307693,foldcauchy,"c=1.68, loc=50.00, scale=1017.64",0.9999971590180624,50,85590,1272.0,2096.5,3600.0,3849.0931818181816,60.40249948837277,6.726992959626904,6901.980979659695,7104.196668158734
B_US_30_A,0,24400,0.0,0.0,0.0,130.6202797202797,262.62537981414624,16.01516038204701,0.9573426573426573,,,,309,24400,654.0,1000.0,1600.0,3062.0819672131147,7.73241870529146,3.05118357199104,1463.7244290531803,6473.0957799574335
B_UT_20_A,0,61559,0.0,0.0,200.0,730.1118881118881,188.67292078037818,11.9708029013197,0.73006993006993,,,,70,61559,560.0,1283.5,2371.75,2704.818652849741,56.92073297871832,6.700742198091264,3272.1563328405573,5863.955660014169
C_owner_A,26.0,94.0,52.0,59.0,66.0,59.353846153846156,0.19793044716483488,0.12116758337855173,0.0,johnsonsu,"a=-0.53, b=3.51, loc=53.48, scale=36.90",0.9999999997064151,26.0,94.0,52.0,59.0,66.0,59.353846153846156,0.19793044716483488,0.12116758337855173,11.086117313702744,11.086117313702744
C_manager_A,26.0,94.0,51.0,58.0,65.75,58.26853146853147,0.13742242134636928,0.09274791519099661,0.0,gennorm,"beta=1.71, loc=58.17, scale=14.25",0.9999999997064151,26.0,94.0,51.0,58.0,65.75,58.26853146853147,0.13742242134636928,0.09274791519099661,11.081253561177661,11.081253561177661
C_PC_60_Y1,0.0,52920.0,462.5,1029.0,1800.0,1925.6237762237763,60.848343778135614,6.9681808328714325,0.13356643356643358,loglaplace,"c=1.38, loc=-0.19, scale=1193.19",0.9994580862198298,40.0,52920.0,657.5,1193.0,1971.0,2222.4713478611784,54.25600517969312,6.622671062816415,4239.128934943593,4481.340243387634
C_PR_50_Y1,0.0,24960.0,0.0,0.0,0.0,206.06853146853146,124.52651924279725,10.80229484960808,0.9692307692307692,,,,192.0,24960.0,762.75,3242.5,9325.0,6697.227272727273,0.07680287899035454,1.213795807626859,1797.1816738182392,7927.976776019175
C_UC_60_Y1,0.0,1680.0,0.0,0.0,0.0,7.945454545454545,217.80043670254167,14.107091820105854,0.9769230769230769,,,,9.0,1680.0,66.0,151.0,350.0,344.3030303030303,1.7089447248470067,1.6674407744949329,84.30541857281749,444.9292419059803
C_UR_40_P,0,1,0.0,0.0,0.0,0.1902097902097902,0.4981737124271448,1.5803413943673403,0.8097902097902098,,,,1,1,1.0,1.0,1.0,1.0,0,0,0.39260389019936626,0.0
C_UR_40_Y1,0.0,2980.0,0.0,0.0,0.0,179.46783216783217,5.76462595274625,2.54529980579959,0.8097902097902098,,,,45.0,2980.0,430.0,960.0,1326.0,943.5257352941177,-0.4143934119147308,0.18961587285654885,441.89283206642574,553.261839947319
C_UR_50_Y1,0.0,2702.0,0.0,0.0,0.0,162.50209790209792,7.992227810293223,2.930655819333154,0.8097902097902098,,,,76.0,2702.0,260.0,722.5,1386.0,854.3308823529412,-0.8496000242246233,0.5225868115398733,429.41980279847803,615.7339370676129
D_AD_3020_V,0.0,749062.0,0.0,1252.5,6183.75,9713.143356643357,135.98894091294576,11.283508967350238,0.3853146853146853,,,,32.0,749062.0,1620.5,4173.0,10976.5,15801.814562002275,83.07195622328568,8.868938496428578,52698.78456294039,66510.77594579726
D_AD_3030_V,0.0,164700.0,0.0,5073.0,13743.25,11509.71048951049,17.4900026050488,3.3001195633227485,0.34615384615384615,,,,82.0,164700.0,5400.0,10141.0,22878.0,17603.08663101604,14.303073988107919,2.9672813254914265,18243.266930328366,20045.58528722662
D_AD_4010_V,0.0,680410.0,27049.0,44073.0,71030.75,54506.72797202797,38.89165918212424,4.423269274731614,0.07832167832167833,laplace_asymmetric,"kappa=0.54, loc=29753.00, scale=22757.70",0.9999967308721428,124.0,680410.0,31003.75,47639.5,73614.5,59138.55918057663,41.955467744717154,4.7338119161496195,52555.1271676736,52180.479543112575
D_CV_1010_V,89,3899248,23549.0,42224.0,81508.5,108405.15314685315,77.56196023841751,7.51273179309535,0.0,foldcauchy,"c=1.12, loc=89.00, scale=28468.74",0.9999999997064151,89,3899248,23549.0,42224.0,81508.5,108405.15314685315,77.56196023841751,7.51273179309535,266858.9293126487,266858.9293126487
D_CV_1020_V,0.0,267787.0,260.0,671.5,2180.0,2479.6692307692306,537.895262556979,19.72033768521008,0.028671328671328673,wald,"loc=-319.11, scale=2179.12",0.999999988369548,7.0,267787.0,294.0,700.0,2216.0,2552.8632109431246,524.1756344324536,19.47816433362855,9004.79440436609,9126.583949455711
D_CV_1040_V,0.0,35056.0,191.0,369.0,754.75,810.6447552447553,117.05725660359975,8.693691868215954,0.13006993006993006,kappa3,"a=1.86, loc=31.96, scale=513.57",0.9995970904995473,32.0,35056.0,265.0,439.0,845.0,931.8504823151126,105.90409344278177,8.309067558713506,1812.1350315755074,1913.683113916856
D_CV_2010_V,0.0,883653.0,3470.0,9113.0,21138.0,21622.687412587413,146.248160501796,10.55583599240107,0.025874125874125874,kappa3,"a=1.48, loc=3.00, scale=10855.34",0.9999999919715635,3.0,883653.0,4115.0,9409.0,22603.0,22197.015793251972,143.20368383986073,10.455636169454278,54020.75427265927,54617.3284677076
D_CV_3010_V,0.0,9557940.0,45187.0,105000.0,270453.25,268025.52937062935,107.9042436428266,9.544582930387351,0.07622377622377623,fatiguelife,"c=1.35, loc=-5177.75, scale=160071.89",0.9999974658323102,1.0,9557940.0,55868.0,134470.0,290027.0,290141.18622255867,100.73584065702185,9.247362009832967,724174.8375059738,749208.1215191499
D_CV_3020_V,0.0,307377.0,0.0,2969.5,8064.75,7671.156643356643,121.89400629185113,9.638535137665878,0.34195804195804197,,,,2.0,307377.0,3079.0,5944.0,12225.0,11657.549415515408,87.72764349025735,8.321597423919334,20006.8750068964,23706.164358550923
D_CV_3030_V,0.0,143981.0,0.0,4886.5,20210.25,13062.732167832168,11.197465510947797,2.749580551130042,0.3062937062937063,,,,1.0,143981.0,3996.75,14473.0,26531.25,18830.3497983871,9.26399371749658,2.4820042602933645,19152.373496559863,20499.29132322407
D_CV_4010_V,0.0,354394.0,3268.25,22909.0,42970.5,29975.996503496503,17.377543373774195,3.148978353928344,0.038461538461538464,recipinvgauss,"mu=9.74, loc=-93.52, scale=28356.78",0.9999999629695642,1.0,354394.0,4454.5,24398.0,44436.0,31175.036363636365,17.326723511909382,3.1495847317539263,35254.050370665595,35428.67278872762
D_CV_5010_V,0.0,0.0,0.0,0.0,0.0,0.0,0,0,,,,,,,,,,,,,0.0,
D_CV_7010_V,0.0,337012.0,5300.0,10313.0,22000.0,19522.434265734264,43.3640328976329,5.5760173757092355,0.0034965034965034965,johnsonsu,"a=-2.24, b=0.84, loc=1160.30, scale=1304.18",0.9999999995233924,122.0,337012.0,5300.0,10530.0,22331.0,19590.93403508772,43.28497014711729,5.5724985078928695,30491.46080151919,30522.954697761495
D_DY_3020_V,0.0,19848.0,0.0,104.5,326.0,436.17622377622376,96.55558803770572,9.490963861193851,0.4013986013986014,,,,7.0,19848.0,135.0,263.0,601.0,728.6588785046729,58.04793162091394,7.444651076455924,1733.2495003215827,2192.6258743845233
D_DY_3030_V,0.0,7492.0,0.0,273.0,728.0,491.5230769230769,26.69293165764969,3.972364598537478,0.37552447552447554,,,,41.0,7492.0,364.0,600.0,957.0,787.097424412094,24.721934933252992,3.9816490945378673,738.1886749070286,800.0431424214019
D_DY_4010_V,0.0,69289.0,776.5,4309.0,7482.75,5204.881818181818,30.819859820468373,4.154289543171035,0.1076923076923077,nakagami,"nu=0.34, loc=68.00, scale=8453.81",0.9999419336099432,68.0,69289.0,2241.0,4808.5,7813.5,5833.057210031348,31.504970215183963,4.280295281354007,6055.364415314607,6117.943502025771
D_IP_2010_V,0.0,38000.0,0.0,0.0,0.0,152.43846153846152,295.88904389473345,16.197766457324825,0.9825174825174825,,,,1.0,38000.0,2810.0,5600.0,10025.0,8719.48,2.6332764282705936,1.8144084306064683,1769.4744927421505,10421.83694668715
D_IP_3010_V,0.0,250000.0,0.0,0.0,0.0,244.55454545454546,1331.7533816114055,35.980133671370005,0.9951048951048951,,,,3636.0,250000.0,11150.0,18640.0,27568.5,49959.0,6.705063862274159,2.574253721982776,6728.416214789629,88794.99493965486
D_IP_3020_V,0.0,19615.0,0.0,0.0,0.0,91.69090909090909,325.7971463087311,16.69762022009439,0.9678321678321679,,,,90.0,19615.0,552.75,1705.0,2789.25,2850.391304347826,9.764394868531433,3.070787232921836,899.1241183024949,4199.266800966626
D_IP_3030_V,0.0,66942.0,0.0,0.0,0.0,191.12657342657343,428.0935710648978,19.032079581762396,0.9902097902097902,,,,2306.0,66942.0,11100.25,15208.5,19152.5,19522.214285714286,3.872175792063347,1.9492462053870676,2545.8676639633927,17494.13514110271
D_IP_4010_V,0.0,104810.0,0.0,0.0,0.0,4109.031468531469,18.178596112268327,3.8906902534809134,0.7797202797202797,,,,255.0,104810.0,2609.0,14540.0,28433.0,18653.698412698413,2.7356138952328934,1.5011751461269702,11898.429002027699,19290.276493904985
D_IP_7010_V,0.0,19168.0,0.0,0.0,0.0,50.28391608391608,432.4068890387888,19.150948531846126,0.9916083916083916,,,,560.0,19168.0,2656.5,3985.0,8001.5,5992.166666666667,3.0340222856945323,1.6064378473553733,710.866591223623,5177.410915494229
D_OV_1010_V,69,3765130,20085.5,36019.5,68887.0,87585.56573426574,88.06009557935828,7.754728578055606,0.0,kappa3,"a=1.81, loc=69.00, scale=43664.00",0.9999999997064151,69,3765130,20085.5,36019.5,68887.0,87585.56573426574,88.06009557935828,7.754728578055606,214148.1221002916,214148.1221002916
D_OV_1020_V,0.0,70523.0,127.75,600.0,2071.0,1711.3874125874127,124.18564460460048,9.442047057402904,0.2020979020979021,fatiguelife,"c=1.49, loc=-31.17, scale=1036.43",0.9473355348114688,7.0,70523.0,340.0,1022.0,2540.0,2144.8588957055213,105.08753827127363,8.77292335837021,4011.304672623162,4386.241428651983
D_OV_1040_V,0.0,17846.0,0.0,163.5,334.5,333.97762237762237,148.64177675944816,9.464348871345381,0.3888111888111888,,,,32.0,17846.0,180.0,280.0,479.0,546.4393592677345,104.80176461011695,8.067336522632619,840.0379324651639,1019.2445438608912
D_OV_2010_V,0.0,883653.0,3412.0,9072.0,21000.0,21620.781118881117,146.32466082402604,10.570436573485722,0.026573426573426574,kappa3,"a=1.47, loc=3.00, scale=10731.83",0.9999999912180506,3.0,883653.0,4115.0,9373.0,21457.0,22211.003591954024,143.17966499397073,10.466565670016024,54439.75287581851,55059.34288379964
D_OV_3010_V,0.0,9557940.0,45187.0,105000.0,272763.75,268773.2377622378,107.777086986104,9.537127857820435,0.07692307692307693,fatiguelife,"c=1.36, loc=-3553.69, scale=158049.39",0.9999971590180624,1.0,9557940.0,56338.0,135035.0,291271.0,291171.00757575757,100.56048480538341,9.237950286768035,724331.7508799926,749589.5416383108
D_OV_3020_V,0.0,318480.0,0.0,2991.5,8417.25,8015.641958041958,115.19863353973719,9.413853241819606,0.35874125874125873,,,,2.0,318480.0,3336.0,6277.0,13056.0,12499.856052344601,80.81742517691,8.028155923357582,21217.797817568386,25420.671692589094
D_OV_3030_V,0.0,148480.0,0.0,5082.5,20757.75,13363.128671328672,10.646188296309415,2.6787956215597273,0.3111888111888112,,,,1.0,148480.0,4304.0,14886.0,27312.0,19400.27817258883,8.785369053696108,2.406672539590943,19497.505859124885,20852.577630283813
D_OV_4010_V,0.0,411891.0,3983.5,23134.0,43375.25,31101.274125874126,21.118658719354986,3.545779346242301,0.045454545454545456,recipinvgauss,"mu=8.00, loc=-129.41, scale=29078.92",0.9999999155344297,8.0,411891.0,5634.0,24764.0,45130.0,32582.28717948718,20.985746205456902,3.546057384429177,38049.71733546765,38320.79481287527
D_OV_5010_V,0.0,0.0,0.0,0.0,0.0,0.0,0,0,,,,,,,,,,,,,0.0,
D_OV_7010_V,0.0,337012.0,4051.0,8000.0,19743.0,16737.86083916084,53.83690694904483,6.233290570427568,0.06153846153846154,johnsonsu,"a=-2.15, b=0.83, loc=1262.05, scale=1213.75",0.9999994716896298,122.0,337012.0,4833.0,8473.0,20520.0,17835.425484351716,51.86185823170606,6.145312613236806,28795.16061373306,29393.58639286953
D_SA_2010_V,0.0,12450.0,0.0,0.0,0.0,8.706293706293707,1430.0000000000002,37.81534080237808,,,,,,,,,,,,,329.2314636290958,
D_SA_3010_V,0.0,0.0,0.0,0.0,0.0,0.0,0,0,,,,,,,,,,,,,0.0,
D_SA_4010_V,0.0,11760.0,0.0,0.0,0.0,29.427272727272726,407.48564809332333,19.679064858148745,0.9958041958041958,,,,1675.0,11760.0,4247.75,6587.5,10649.25,7013.5,-2.082505072343565,0.0046831471429196235,515.8776157589339,4156.984423834181
D_SA_7010_V,0.0,3065.0,0.0,0.0,0.0,5.607692307692307,543.5738009853385,23.058564456186236,0.9972027972027973,,,,134.0,3065.0,1395.5,2410.0,3019.25,2004.75,0.09768289797744423,-1.1233212093099385,123.1982390253187,1373.3126313164578
D_S_2010_V,0.0,46929.0,0.0,0.0,0.0,71.74755244755245,684.544592863029,25.43568605727848,0.9972027972027973,,,,9345.0,46929.0,11636.25,23162.5,37176.0,25649.75,-3.4257266579444057,0.41071992993736856,1584.3364819633737,17913.560885076236
D_S_3020_V,0.0,884.0,0.0,0.0,0.0,0.6181818181818182,1429.9999999999995,37.81534080237806,,,,,,,,,,,,,23.376756132379175,
D_S_3030_V,0.0,353.0,0.0,0.0,0.0,0.24685314685314685,1430.0,37.81534080237806,,,,,,,,,,,,,9.334835876391232,
D_S_4010_V,0.0,46929.0,0.0,0.0,0.0,71.74755244755245,684.544592863029,25.43568605727848,0.9972027972027973,,,,9345.0,46929.0,11636.25,23162.5,37176.0,25649.75,-3.4257266579444057,0.41071992993736856,1584.3364819633737,17913.560885076236
H_FO_5071_V,0.0,123075.0,0.0,0.0,741.0,1767.5125874125874,175.78827012791425,11.074354977716132,0.7216783216783217,,,,90.0,123075.0,1473.75,3142.0,7500.0,6350.610552763819,61.053667424151115,6.720373926178712,6561.097854381914,11214.827137073828
H_LM_1010_V,0.0,900000.0,3402.5,7359.0,12617.5,16490.11888111888,141.61969950149978,10.200191065506878,0.12517482517482517,loglaplace,"c=1.34, loc=-14.15, scale=8629.15",0.9997298844006718,343.0,900000.0,4461.0,8615.0,14271.0,18849.61630695444,126.1090706504989,9.651865221337658,48329.554804657244,51241.71615205586
H_LM_1020_V,0.0,361215.0,0.0,0.0,2049.0,5717.4125874125875,71.61229782634649,7.749360974299305,0.5818181818181818,,,,115.0,361215.0,1152.75,2916.0,6867.5,13672.073578595318,28.74671141739247,4.956899009410242,25727.93938464772,38411.87737818239
H_SC_3030_V,0.0,180642.0,1618.25,3245.0,6331.5,6600.398601398601,46.40184916095664,5.649574371651811,0.056643356643356645,foldcauchy,"c=1.07, loc=114.00, scale=2282.84",0.9999996852389929,114.0,180642.0,1908.0,3481.0,6663.0,6996.716085989622,44.5851292239806,5.549582169033751,12164.151756697633,12413.008392601409
H_SC_3031_Q,0.0,35220.0,0.0,0.0,9.0,209.7027972027972,333.6741478161131,15.818395719840115,0.6692307692307692,,,,1.0,35220.0,9.0,26.0,322.0,633.985200845666,113.4569800385733,9.246014286156235,1380.104536230097,2344.561063007392
H_SC_3032_Q,0.0,17330.0,0.0,0.0,3.0,99.90629370629371,375.0999650138208,16.518581163866806,0.6986013986013986,,,,1.0,17330.0,5.0,13.0,136.5,331.4756380510441,117.79264652772181,9.279903235699118,650.1793064003256,1152.3507394585629
H_SC_3033_Q,0.0,17330.0,0.0,0.0,5.0,149.68741258741258,197.7554483626617,12.392545830178358,0.6804195804195804,,,,1.0,17330.0,6.0,16.0,280.0,468.38730853391684,64.34394278266569,7.099226858989563,861.1312872978252,1474.5294584327376
H_SC_3034_V,0.0,14218.0,0.0,0.0,0.0,352.8286713286713,30.80789054882017,4.899216670520647,0.8461538461538461,,,,6.0,14218.0,681.0,1673.5,3205.5,2293.3863636363635,4.562555135398798,1.7904134221997703,1199.9516181710608,2219.1522016024783
I_A_10110_TC_MD_IR,0.0,7899.0,0.0,0.0,0.0,14.488111888111888,623.0113813342223,24.506208157301213,0.9965034965034965,,,,1220.0,7899.0,1300.0,2400.0,7899.0,4143.6,-3.241137514894069,0.5296382565583423,305.5660892802996,3459.7578383464934
I_A_10110_TC_MD_TA,0.0,7899.0,0.0,0.0,0.0,47.12587412587413,255.40241441582236,14.18912644229364,0.9678321678321679,,,,100.0,7899.0,533.0,1000.0,1493.5,1465.0,10.07028466279809,2.970372115507836,384.6901649158258,1605.0074696953213
I_A_10120_TC_MD_IR,0.0,11555.0,0.0,0.0,0.0,15.918181818181818,713.1614891198603,26.720727673307817,,,,,,,,,,,,,425.54451466198367,
I_A_10120_TC_MD_TA,0.0,11555.0,0.0,0.0,0.0,77.8979020979021,157.19599111154957,12.015862702131676,0.9727272727272728,,,,239.0,11555.0,525.0,1160.0,4000.0,2856.25641025641,0.8364973184641489,1.4300703189337798,719.533917788411,3365.2338521850215
I_A_10140_TC_MD_IR,0.0,0.0,0.0,0.0,0.0,0.0,0,0,,,,,,,,,,,,,0.0,
I_A_10140_TC_MD_TA,0.0,3100.0,0.0,0.0,0.0,8.857342657342658,369.5439073636718,18.042900176189995,0.9916083916083916,,,,214.0,3100.0,350.0,843.5,1315.5,1055.5,1.0510523087559989,1.2213323336582083,124.1736715182489,893.2636279905888
I_A_10603_TC_MD_IR,0.0,2800.0,0.0,0.0,0.0,16.122377622377623,233.11589462632895,13.51683749952534,0.9762237762237762,,,,70.0,2800.0,200.0,600.0,772.5,678.0882352941177,6.998343685842162,2.398105373444442,139.75406666353777,619.1015174818316
I_A_10603_TC_MD_TA,0.0,3400.0,0.0,0.0,0.0,25.153146853146854,175.7754266801126,11.660389952679303,0.9636363636363636,,,,70.0,3400.0,200.0,600.0,781.25,691.7115384615385,8.391868258478379,2.669534720259879,178.75565039411498,652.0891114533489
I_A_10605_TC_MD_IR,0.0,500.0,0.0,0.0,0.0,0.34965034965034963,1429.9999999999995,37.81534080237807,,,,,,,,,,,,,13.222147133698629,
I_A_10605_TC_MD_TA,0.0,6500.0,0.0,0.0,0.0,75.1958041958042,104.1950627505066,9.390649242481608,0.9531468531468531,,,,200.0,6500.0,625.0,1100.0,1600.0,1604.9253731343283,3.4296212110574915,1.959393739153395,477.4543802467547,1563.1497758113828
I_A_11220_TC_MD_TA,0.0,5100.0,0.0,0.0,0.0,29.834965034965034,250.71029429735,13.920278789031213,0.9412587412587412,,,,25.0,5100.0,100.0,200.0,531.75,507.9047619047619,16.113829266847283,3.5779588972486063,223.38002002466538,783.1722428079036
I_A_40130_TC_MD_IR,0.0,5240.0,0.0,0.0,0.0,9.076923076923077,669.2047942958949,25.62254000807067,0.9937062937062937,,,,150.0,5240.0,150.0,300.0,1200.0,1442.2222222222222,0.5412081482096491,1.5272926278325711,198.97811284185516,2178.7368919730634
I_A_40130_TC_MD_TA,0.0,5240.0,0.0,0.0,0.0,9.881118881118882,663.0680327556344,25.45120068212615,0.9902097902097902,,,,150.0,5240.0,170.0,230.0,375.0,1009.2857142857143,3.4777573536025788,2.2007184584386033,199.4044312822119,1812.3188048876636
I_A_40310_TC_MD_IR,0.0,7500.0,0.0,0.0,0.0,151.42307692307693,61.46848147228099,7.2022847086761095,0.9174825174825175,,,,100.0,7500.0,800.0,1257.5,2200.0,1835.042372881356,4.057490924310127,2.1387467136846405,713.11000873747,1759.27574644663
I_A_40310_TC_MD_TA,0.0,32690.0,0.0,0.0,0.0,465.5692307692308,116.4388049040423,9.96919046570577,0.8342657342657342,,,,92.0,32690.0,632.0,1300.0,2326.0,2809.130801687764,19.26996334508355,4.2301128748574754,2337.7076174280082,5145.777506662396
I_A_40320_TC_MD_IR,0.0,85540.0,0.0,0.0,650.0,1027.5874125874127,209.99519095315344,13.419639447615445,0.6923076923076923,,,,200.0,85540.0,850.0,1550.0,2600.0,3339.659090909091,68.20511383118252,7.80134063195889,5114.660636090598,8798.531394443393
I_A_40320_TC_MD_TA,0.0,85540.0,1100.0,1990.0,3237.5,3401.7825174825175,81.0703185272164,7.596056553962395,0.12727272727272726,alpha,"a=1.72, loc=-665.28, scale=5004.10",0.9996660221931519,323.0,85540.0,1350.0,2176.0,3700.0,3897.8758012820513,74.65204087799378,7.358031816100671,6387.482805031939,6694.7321144914295
I_A_40330_TC_MD_IR,0.0,6700.0,0.0,0.0,0.0,29.244755244755243,262.8034272772768,14.913761879661008,0.9881118881118881,,,,110.0,6700.0,1800.0,2110.0,2900.0,2460.0,2.396721280169301,1.5453169438671988,327.6873481468645,1799.1387522923294
I_A_40330_TC_MD_TA,0.0,13500.0,0.0,0.0,0.0,123.87622377622378,150.5235077710179,10.83312210504386,0.9468531468531468,,,,110.0,13500.0,1000.0,1418.0,2500.0,2330.8289473684213,9.665052949205545,2.897962194676456,774.550671383973,2493.596991700452
I_A_50200_TC_MD_TA,0.0,0.0,0.0,0.0,0.0,0.0,0,0,,,,,,,,,,,,,0.0,
I_A_50210_TC_MD_TA,0.0,0.0,0.0,0.0,0.0,0.0,0,0,,,,,,,,,,,,,0.0,
I_A_50900_TC_MD_TA,0.0,150.0,0.0,0.0,5.0,4.372027972027972,73.69821589569163,7.687098197192131,0.5552447552447553,,,,1.0,150.0,3.0,5.0,10.0,9.830188679245284,36.737274347311185,5.596036010579626,12.628349623721665,17.468336275896704
I_CV_10110_TC_MD_V,0.0,460.0,0.0,0.0,0.0,0.32167832167832167,1430.0,37.81534080237809,,,,,,,,,,,,,12.164375363002735,
I_CV_40130_TC_MD_V,0.0,0.0,0.0,0.0,0.0,0.0,0,0,,,,,,,,,,,,,0.0,
I_CV_40320_TC_MD_V,0.0,0.0,0.0,0.0,0.0,0.0,0,0,,,,,,,,,,,,,0.0,
I_PR_10110_TC_MD_Q,0.0,1816.0,0.0,0.0,0.0,13.04965034965035,164.3748374579869,11.384399876245574,0.9678321678321679,,,,18.0,1816.0,152.5,357.0,533.75,405.67391304347825,5.696897184454443,2.13269844216921,98.28697031558902,379.41030586060356
I_PR_10120_TC_MD_Q,0.0,3886.0,0.0,0.0,0.0,18.81888111888112,242.87839638631766,13.564649159626876,0.9727272727272728,,,,71.0,3886.0,178.5,374.0,1255.0,690.025641025641,7.47248676336378,2.2383156350952356,165.87898936095982,747.9320433237898
I_PR_10140_TC_MD_Q,0.0,931.0,0.0,0.0,0.0,2.0,563.1428460646473,22.06171075529116,0.9916083916083916,,,,40.0,931.0,61.25,104.0,403.25,238.33333333333334,3.5779115798653534,1.8131275620935337,31.85828487074482,265.338662958503
I_PR_10603_TC_MD_Q,0.0,952.0,0.0,0.0,0.0,7.584615384615384,147.4262919183876,10.785323103980222,0.9636363636363636,,,,16.0,952.0,87.25,190.5,244.25,208.57692307692307,6.138040432814826,2.2895844171048814,52.965502732750515,189.36812848117964
I_PR_10605_TC_MD_Q,0.0,750.0,0.0,0.0,0.0,7.147552447552448,112.32441605215702,9.230845907728456,0.9531468531468531,,,,15.0,750.0,67.0,123.0,180.5,152.55223880597015,7.147542659991814,2.3067765498758015,42.86132264186341,131.36950935181287
I_PR_40130_TC_MD_Q,0.0,488.0,0.0,0.0,0.0,0.793006993006993,727.8521793989765,26.120531802935123,0.993006993006993,,,,12.0,488.0,23.75,37.5,101.25,113.4,2.629942562242862,1.8729839079627968,15.97541695433617,162.27699227623805
I_PR_40310_TC_MD_Q,0.0,21659.0,0.0,0.0,0.0,211.43146853146854,209.41822495820531,12.924070311495596,0.8342657342657342,,,,13.0,21659.0,350.0,620.0,1143.0,1275.7257383966244,39.01929590940595,5.74728854085973,1121.825357847062,2501.3547847531763
I_PR_40320_TC_MD_Q,0.0,29312.0,325.0,610.0,1017.75,1078.1776223776224,57.48772471975195,6.61788300965778,0.12937062937062938,fisk,"c=2.06, loc=37.05, scale=660.70",0.9996041093270095,45.0,29312.0,416.0,694.0,1110.0,1238.3887550200802,52.001700949150305,6.340536534429141,2155.959132795438,2267.34255362979
I_PR_40330_TC_MD_Q,0.0,2708.0,0.0,0.0,0.0,20.832867132867133,227.6960240180199,13.119005519688669,0.9335664335664335,,,,14.0,2708.0,111.0,175.0,337.0,313.58947368421053,19.437621648485564,3.983670388344196,133.12583968529083,420.28264285837207
I_SA_10110_TC_MD_Q,0.0,1816.0,0.0,0.0,0.0,13.04965034965035,164.3748374579869,11.384399876245574,0.9678321678321679,,,,18.0,1816.0,152.5,357.0,533.75,405.67391304347825,5.696897184454443,2.13269844216921,98.28697031558902,379.41030586060356
I_SA_10110_TC_MD_V,0.0,31780.0,0.0,0.0,0.0,247.27972027972027,148.9720856821833,11.178793257702809,0.9678321678321679,,,,356.0,31780.0,2589.75,5941.5,9079.5,7687.173913043478,3.463949529777689,1.8989220285834745,1894.23042458089,7448.469842276623
I_SA_10120_TC_MD_Q,0.0,3886.0,0.0,0.0,0.0,18.81888111888112,242.87839638631766,13.564649159626876,0.9727272727272728,,,,71.0,3886.0,178.5,374.0,1255.0,690.025641025641,7.47248676336378,2.2383156350952356,165.87898936095982,747.9320433237898
I_SA_10120_TC_MD_V,0.0,85492.0,0.0,0.0,0.0,483.8797202797203,173.09963487933027,11.926926906938233,0.9727272727272728,,,,1426.0,85492.0,4710.0,8403.0,31082.5,17742.25641025641,3.1435181248919637,1.6133294102476248,4176.319350399747,18483.427189495073
I_SA_10140_TC_MD_Q,0.0,931.0,0.0,0.0,0.0,2.0,563.1428460646473,22.06171075529116,0.9916083916083916,,,,40.0,931.0,61.25,104.0,403.25,238.33333333333334,3.5779115798653534,1.8131275620935337,31.85828487074482,265.338662958503
I_SA_10140_TC_MD_V,0.0,14891.0,0.0,0.0,0.0,34.97482517482518,484.1887219664933,20.43033113904955,0.9916083916083916,,,,840.0,14891.0,999.25,2373.0,6871.0,4167.833333333333,2.6209054357293144,1.5440901484681302,533.8569806444976,4270.0744688701825
I_SA_10603_TC_MD_Q,0.0,952.0,0.0,0.0,0.0,7.584615384615384,147.4262919183876,10.785323103980222,0.9636363636363636,,,,16.0,952.0,87.25,190.5,244.25,208.57692307692307,6.138040432814826,2.2895844171048814,52.965502732750515,189.36812848117964
I_SA_10603_TC_MD_V,0.0,50450.0,0.0,0.0,0.0,321.6118881118881,201.4808071186698,12.24047270006734,0.9636363636363636,,,,189.0,50450.0,4031.25,7219.0,11041.25,8844.326923076924,10.584122020672892,2.8296540393693315,2330.56006501732,8679.465106680507
I_SA_10605_TC_MD_Q,0.0,750.0,0.0,0.0,0.0,7.147552447552448,112.32441605215702,9.230845907728456,0.9531468531468531,,,,15.0,750.0,67.0,123.0,180.5,152.55223880597015,7.147542659991814,2.3067765498758015,42.86132264186341,131.36950935181287
I_SA_10605_TC_MD_V,0.0,22698.0,0.0,0.0,0.0,251.52727272727273,91.30827512980589,8.54330356803098,0.9531468531468531,,,,485.0,22698.0,2319.5,4125.0,6346.0,5368.417910447762,4.276306391684081,1.872129224650353,1491.5615889775859,4503.723365842754
I_SA_40130_TC_MD_Q,0.0,488.0,0.0,0.0,0.0,0.793006993006993,727.8521793989765,26.120531802935123,0.993006993006993,,,,12.0,488.0,23.75,37.5,101.25,113.4,2.629942562242862,1.8729839079627968,15.97541695433617,162.27699227623805
I_SA_40130_TC_MD_V,0.0,351230.0,0.0,0.0,0.0,469.2503496503497,754.6294206467677,27.23584281758775,0.993006993006993,,,,900.0,351230.0,2346.0,3915.0,20919.75,67102.8,2.042648657894401,1.8624016710411038,11726.63703025938,129869.40079496958
I_SA_40310_TC_MD_Q,0.0,21659.0,0.0,0.0,0.0,211.43146853146854,209.41822495820531,12.924070311495596,0.8342657342657342,,,,13.0,21659.0,350.0,620.0,1143.0,1275.7257383966244,39.01929590940595,5.74728854085973,1121.825357847062,2501.3547847531763
I_SA_40310_TC_MD_V,0.0,1395341.0,0.0,0.0,0.0,13933.986013986014,201.68381019016633,12.805931251858036,0.8342657342657342,,,,545.0,1395341.0,18308.0,35045.0,74311.0,84074.26160337553,36.06511640580171,5.557975367086028,77668.54961424896,174942.09293685207
I_SA_40320_TC_MD_Q,0.0,29312.0,321.0,583.5,981.0,1058.509090909091,57.81547946904862,6.648769783642588,0.12937062937062938,fisk,"c=2.06, loc=37.89, scale=637.16",0.9996041093270095,45.0,29312.0,401.0,662.0,1058.0,1215.7975903614458,52.18292559019531,6.360665762538096,2155.170392368369,2268.064078632962
I_SA_40320_TC_MD_V,0.0,1732608.0,18423.75,31702.5,55589.75,59656.529370629374,65.72731230319962,7.129486524293571,0.12937062937062938,loglaplace,"c=1.60, loc=-70.77, scale=36649.77",0.9996041093270095,2700.0,1732608.0,23850.0,36579.0,61121.0,68521.15421686746,59.1227253482285,6.8060521779576035,127624.20082816925,134544.69672414425
I_SA_40330_TC_MD_Q,0.0,2708.0,0.0,0.0,0.0,20.832867132867133,227.6960240180199,13.119005519688669,0.9335664335664335,,,,14.0,2708.0,111.0,175.0,337.0,313.58947368421053,19.437621648485564,3.983670388344196,133.12583968529083,420.28264285837207
I_SA_40330_TC_MD_V,0.0,836579.0,0.0,0.0,0.0,6216.690209790209,208.52110458582828,11.962121147155868,0.9335664335664335,,,,4905.0,836579.0,38174.5,53424.0,107116.0,93577.54736842106,21.01832302510006,3.8313208656443463,36867.0228616311,111357.10561510565
K_PR_330_Q,0.0,19.0,0.0,0.0,0.0,0.04195804195804196,479.84741000656317,21.39215615727021,0.9958041958041958,,,,3.0,19.0,3.5,8.5,16.5,10.0,-2.441744160899654,0.3274892251536239,0.7800354002672324,7.37563556583431
K_SA_330_Q,0.0,19.0,0.0,0.0,0.0,0.04195804195804196,479.84741000656317,21.39215615727021,0.9958041958041958,,,,3.0,19.0,3.5,8.5,16.5,10.0,-2.441744160899654,0.3274892251536239,0.7800354002672324,7.37563556583431
K_SA_330_V,0.0,2665.0,0.0,0.0,0.0,6.0762237762237765,472.17455087566503,21.075528990650714,0.9958041958041958,,,,403.0,2665.0,747.75,1159.0,2309.0,1448.1666666666667,-2.1007400483297936,0.4570955074390536,110.0606318413695,977.7159948914955
M_AI_10100_FI_BU_N,0.0,259.5,0.0,0.0,0.0,1.1530559440559442,240.38475542181246,15.121622956184533,0.9853146853146854,,,,1.29,259.5,14.0,27.32,131.0,78.51761904761904,-0.39820287383676867,1.1175848254191163,14.330801191944094,91.08026262065574
M_AI_10200_FI_BU_N,0.0,91.56,0.0,0.0,0.0,0.19560839160839164,549.8034601149368,22.74016603811096,0.9944055944055944,,,,4.0,91.56,4.0,28.2,44.04,34.965,-0.4918000667728766,1.0516444601677553,3.66030200820262,36.683545162842236
M_S_1150_FI_BU_N,0.0,855.0,7.0,16.0,30.0,33.88774825174825,52.47209829703978,6.359829858400799,0.21188811188811188,burr12,"c=3.77, d=0.32, loc=-0.09, scale=11.74",0.9146970257583465,2.0,855.0,13.0,21.0,37.0,42.99865128660159,43.321261401536425,5.832039258254502,74.92039824762337,82.0451387466842
M_S_1150_FI_BU_V,0.0,378443.0,1372.5,4262.0,10785.5,10916.481818181817,75.43307523885588,7.459666228430524,0.21188811188811188,lomax,"c=2.33, loc=500.00, scale=17062.19",0.9146970257583465,500.0,378443.0,2999.5,6594.0,13642.5,13851.43655723159,62.23120988311138,6.825150356870708,26178.222566390912,28792.706156654644
M_S_1400_FI_BU_V,0.0,169723.0,0.0,1621.0,4928.25,4661.1398601398605,95.85355707882523,8.535831044817309,0.2944055944055944,,,,264.0,169723.0,1408.0,3157.0,6862.0,6605.97621407334,71.94616676480653,7.480521363339792,12194.554461064512,14069.673529179263
M_S_2334_FI_BU_N,0.0,60.0,0.0,0.0,0.0,0.043356643356643354,1428.4103220759273,37.78417554312203,0.9979020979020979,,,,1.0,60.0,1.0,1.0,30.5,20.666666666666668,,1.7320508075688767,1.5870610236756684,34.06366588218791
M_S_2334_FI_BU_V,0.0,1860.0,0.0,0.0,0.0,1.5916083916083916,1361.3614337966383,36.54009511582847,0.9979020979020979,,,,208.0,1860.0,208.0,208.0,1034.0,758.6666666666666,,1.732050807568878,49.78965903143492,953.7826447012618
M_S_3300_FI_BU_N,0.0,85500.0,0.0,0.0,0.0,83.0558041958042,1393.5577606915217,37.11266018448714,0.8265734265734266,,,,1.0,85500.0,1.0,9.0,25.0,478.91048387096777,241.82322753868118,15.462725304048137,2274.993171513191,5454.600311341688
M_S_3300_FI_BU_V,0.0,113568.0,0.0,0.0,0.0,1485.0713286713287,126.49747912232122,8.63969661607432,0.83006993006993,,,,120.0,113568.0,2325.0,5201.0,10714.0,8739.308641975309,34.031545771099964,4.456973708438866,5609.162436757787,11051.107299116135
M_S_3500_FI_BU_N,0.0,112.0,0.0,0.0,0.0,2.0226853146853148,49.579801294431846,6.4274727586951235,0.8825174825174825,,,,0.01,112.0,1.0,11.075,22.0,17.21690476190476,3.716106695917039,1.8448888364283664,9.294110405810958,21.81706050970865
M_S_3500_FI_BU_V,0.0,9367.0,0.0,0.0,0.0,214.4062937062937,36.417385306673175,5.1286480393563805,0.8825174825174825,,,,14.0,9367.0,1097.25,1452.0,2460.75,1825.0059523809523,8.76796803734288,2.4562929888763647,735.1350879811652,1291.2739264996294
M_S_9000_FI_BU_N,0.0,7000.0,0.0,1.0,1.0,52.616083916083916,133.1172155433653,10.603201848452644,0.4972027972027972,,,,1.0,7000.0,1.0,1.0,1.0,104.64673157162726,65.20311192292867,7.441670460353183,408.7306060824713,571.8743485861023
M_S_9000_FI_BU_V,0.0,52783.0,0.0,1.5,136.0,210.9013986013986,969.1447283180842,28.996964136058978,0.4972027972027972,,,,1.0,52783.0,46.0,136.0,315.0,419.45618915159946,498.0998496371339,20.88041656278802,1535.4251440744758,2145.8040523673008
D_S_1040_V,0.0,0.0,0.0,0.0,0.0,0.0,0,0,,,,,,,,,,,,,0.0,
D_SA_1040_V,0.0,0.0,0.0,0.0,0.0,0.0,0,0,,,,,,,,,,,,,0.0,
D_S_3010_V,0.0,0.0,0.0,0.0,0.0,0.0,0,0,,,,,,,,,,,,,0.0,
D_SA_3020_V,0.0,0.0,0.0,0.0,0.0,0.0,0,0,,,,,,,,,,,,,0.0,
D_SA_3030_V,0.0,0.0,0.0,0.0,0.0,0.0,0,0,,,,,,,,,,,,,0.0,
D_SA_5010_V,0.0,0.0,0.0,0.0,0.0,0.0,0,0,,,,,,,,,,,,,0.0,
D_S_7010_V,0.0,0.0,0.0,0.0,0.0,0.0,0,0,,,,,,,,,,,,,0.0,
D_IP_1040_V,0.0,0.0,0.0,0.0,0.0,0.0,0,0,,,,,,,,,,,,,0.0,
D_IP_5010_V,0.0,0.0,0.0,0.0,0.0,0.0,0,0,,,,,,,,,,,,,0.0,
H_SC_3010_V,0.0,15275.0,0.0,0.0,0.0,192.15664335664334,113.08888795687078,9.433537683130519,0.872027972027972,,,,44.0,15275.0,311.5,663.0,1316.0,1501.551912568306,14.92927215173866,3.509489323080554,979.9172130924976,2358.4997877175874
H_SC_3040_V,0.0,131121.0,427.0,1690.5,3929.25,4669.8216783216785,42.3024662348183,5.772745349886746,0.206993006993007,foldcauchy,"c=0.77, loc=60.00, scale=1794.56",0.9310457337118414,60.0,131121.0,1144.0,2318.0,4858.75,5888.752204585538,34.29332147336989,5.22676926988589,11240.682875413659,12336.075676257527
H_SC_3090_V,0.0,21000.0,0.0,0.0,0.0,232.02937062937062,103.81129828961927,8.660921105133742,0.913986013986014,,,,23.0,21000.0,510.0,1750.0,3798.5,2697.5772357723577,10.568838582464906,2.6705067568913443,1198.561300718086,3181.3430018178246
I_CV_10120_TC_MD_V,0.0,0.0,0.0,0.0,0.0,0.0,0,0,,,,,,,,,,,,,0.0,
I_CV_10140_TC_MD_V,0.0,0.0,0.0,0.0,0.0,0.0,0,0,,,,,,,,,,,,,0.0,
I_CV_10603_TC_MD_V,0.0,0.0,0.0,0.0,0.0,0.0,0,0,,,,,,,,,,,,,0.0,
I_CV_10605_TC_MD_V,0.0,0.0,0.0,0.0,0.0,0.0,0,0,,,,,,,,,,,,,0.0,
I_CV_40310_TC_MD_V,0.0,0.0,0.0,0.0,0.0,0.0,0,0,,,,,,,,,,,,,0.0,
I_CV_40330_TC_MD_V,0.0,0.0,0.0,0.0,0.0,0.0,0,0,,,,,,,,,,,,,0.0,
I_A_10000_TC_MD_IR,0.0,10303.0,0.0,0.0,0.0,15.837762237762238,684.7910517754965,26.01120894364512,0.9965034965034965,,,,129.0,10303.0,200.0,2060.0,9956.0,4529.6,-3.209492820834864,0.5144281479885465,382.63139261932247,5171.740645082659
I_A_10000_TC_MD_TA,0.0,10303.0,0.0,0.0,0.0,84.32727272727273,123.05032697280022,10.643379796889516,0.958041958041958,,,,25.0,10303.0,200.0,495.0,2070.0,2009.8,1.5705435150628566,1.6354849978005939,697.8995061391387,2803.826536620557
I_CV_10000_TC_MD_V,0.0,0.0,0.0,0.0,0.0,0.0,0,0,,,,,,,,,,,,,0.0,
I_PR_10000_TC_MD_Q,0.0,12016.0,0.0,0.0,0.0,24.267832167832168,683.2359294183739,25.91273892496946,0.9699300699300699,,,,4.0,12016.0,48.0,180.0,597.5,807.046511627907,18.27214861451239,4.375384543778565,449.9930863478544,2498.5654927567307
I_SA_10000_TC_MD_Q,0.0,12016.0,0.0,0.0,0.0,24.267832167832168,683.2359294183739,25.91273892496946,0.9699300699300699,,,,4.0,12016.0,48.0,180.0,597.5,807.046511627907,18.27214861451239,4.375384543778565,449.9930863478544,2498.5654927567307
I_SA_10000_TC_MD_V,0.0,289680.0,0.0,0.0,0.0,572.3426573426574,688.9819680870534,26.060425534545683,0.9699300699300699,,,,100.0,289680.0,882.0,3540.0,12039.5,19033.720930232557,18.427445744816524,4.399550628153324,10761.625786320532,59838.3686912883
I_A_30000_TC_MD_IR,0.0,10303.0,0.0,0.0,0.0,15.837762237762238,684.7910517754965,26.01120894364512,0.9965034965034965,,,,129.0,10303.0,200.0,2060.0,9956.0,4529.6,-3.209492820834864,0.5144281479885465,382.63139261932247,5171.740645082659
I_A_30000_TC_MD_TA,0.0,10303.0,0.0,0.0,0.0,84.32727272727273,123.05032697280022,10.643379796889516,0.958041958041958,,,,25.0,10303.0,200.0,495.0,2070.0,2009.8,1.5705435150628566,1.6354849978005939,697.8995061391387,2803.826536620557
I_CV_30000_TC_MD_V,0.0,0.0,0.0,0.0,0.0,0.0,0,0,,,,,,,,,,,,,0.0,
I_PR_30000_TC_MD_Q,0.0,12016.0,0.0,0.0,0.0,24.267832167832168,683.2359294183739,25.91273892496946,0.9699300699300699,,,,4.0,12016.0,48.0,180.0,597.5,807.046511627907,18.27214861451239,4.375384543778565,449.9930863478544,2498.5654927567307
I_SA_30000_TC_MD_Q,0.0,12016.0,0.0,0.0,0.0,24.267832167832168,683.2359294183739,25.91273892496946,0.9699300699300699,,,,4.0,12016.0,48.0,180.0,597.5,807.046511627907,18.27214861451239,4.375384543778565,449.9930863478544,2498.5654927567307
I_SA_30000_TC_MD_V,0.0,289680.0,0.0,0.0,0.0,572.3426573426574,688.9819680870534,26.060425534545683,0.9699300699300699,,,,100.0,289680.0,882.0,3540.0,12039.5,19033.720930232557,18.427445744816524,4.399550628153324,10761.625786320532,59838.3686912883
I_A_40000_TC_MD_IR,0.0,10303.0,0.0,0.0,0.0,15.837762237762238,684.7910517754965,26.01120894364512,0.9965034965034965,,,,129.0,10303.0,200.0,2060.0,9956.0,4529.6,-3.209492820834864,0.5144281479885465,382.63139261932247,5171.740645082659
I_A_40000_TC_MD_TA,0.0,10303.0,0.0,0.0,0.0,84.32727272727273,123.05032697280022,10.643379796889516,0.958041958041958,,,,25.0,10303.0,200.0,495.0,2070.0,2009.8,1.5705435150628566,1.6354849978005939,697.8995061391387,2803.826536620557
I_CV_40000_TC_MD_V,0.0,0.0,0.0,0.0,0.0,0.0,0,0,,,,,,,,,,,,,0.0,
I_PR_40000_TC_MD_Q,0.0,12016.0,0.0,0.0,0.0,24.267832167832168,683.2359294183739,25.91273892496946,0.9699300699300699,,,,4.0,12016.0,48.0,180.0,597.5,807.046511627907,18.27214861451239,4.375384543778565,449.9930863478544,2498.5654927567307
I_SA_40000_TC_MD_Q,0.0,12016.0,0.0,0.0,0.0,24.267832167832168,683.2359294183739,25.91273892496946,0.9699300699300699,,,,4.0,12016.0,48.0,180.0,597.5,807.046511627907,18.27214861451239,4.375384543778565,449.9930863478544,2498.5654927567307
I_SA_40000_TC_MD_V,0.0,289680.0,0.0,0.0,0.0,572.3426573426574,688.9819680870534,26.060425534545683,0.9699300699300699,,,,100.0,289680.0,882.0,3540.0,12039.5,19033.720930232557,18.427445744816524,4.399550628153324,10761.625786320532,59838.3686912883
J_CV_200_N,0.0,64.0,0.0,0.0,0.0,0.25944055944055944,225.00395877699816,14.811343899275316,0.9916083916083916,,,,4.0,64.0,5.0,37.0,50.75,30.916666666666668,-1.966443103608842,-0.07144306142214854,3.543861679020963,24.444587924280476
J_CV_200_V,0.0,73880.0,0.0,0.0,0.0,308.19370629370627,225.27837529738366,14.823273096362767,0.9916083916083916,,,,4800.0,73880.0,6124.0,43237.5,61070.0,36726.416666666664,-1.9833316959390261,-0.06373914045968833,4206.984399521706,28984.8513395229
J_PU_200_N,0.0,27.0,0.0,0.0,0.0,0.01888111888111888,1430.0000000000007,37.81534080237809,,,,,,,,,,,,,0.7139959452197259,
J_PU_200_V,0.0,27728.0,0.0,0.0,0.0,19.39020979020979,1430.0000000000002,37.81534080237809,,,,,,,,,,,,,733.247391446391,
J_SA_200_N,0.0,53.0,0.0,0.0,0.0,0.17272727272727273,296.79610319317925,16.27185339829851,0.990909090909091,,,,2.0,53.0,5.0,18.0,28.0,19.0,0.17690808743787878,0.8212602349419618,2.2998366637527705,15.56705923844749
J_SA_200_V,0.0,59560.0,0.0,0.0,0.0,205.6153846153846,294.98799783703595,16.106469853278284,0.990909090909091,,,,4600.0,59560.0,11285.0,17774.0,34450.0,22617.69230769231,0.8150064429533264,1.1978189786218305,2606.6418989048607,16123.57147359426
J_SR_200_N,0.0,0.0,0.0,0.0,0.0,0.0,0,0,,,,,,,,,,,,,0.0,
J_SR_200_V,0.0,0.0,0.0,0.0,0.0,0.0,0,0,,,,,,,,,,,,,0.0,
J_SS_200_N,0.0,37.0,0.0,0.0,0.0,0.11748251748251748,338.64691620746316,17.67266755962334,0.9916083916083916,,,,2.0,37.0,4.75,10.0,20.5,14.0,-0.4905841917295728,0.9826544406486736,1.6685169676340341,12.232594313405624
J_SS_200_V,0.0,44400.0,0.0,0.0,0.0,147.65664335664334,321.34860813271,16.984883049410175,0.9916083916083916,,,,4600.0,44400.0,9621.5,11038.0,21943.0,17595.75,0.12134443640933057,1.2136448833058566,1966.9683671378968,12949.562604933453
J_CV_300_N,0.0,825.0,0.0,0.0,0.0,2.1706293706293707,418.8883073729936,20.120372275858738,0.9923076923076923,,,,21.0,825.0,23.0,197.0,483.5,282.1818181818182,-0.9132627883193645,1.000140941347257,37.464948549178054,337.1381966439929
J_CV_300_V,0.0,68100.0,0.0,0.0,0.0,185.65034965034965,403.44264762946614,19.690433277530115,0.9923076923076923,,,,1840.0,68100.0,2040.0,19020.0,41358.0,24134.545454545456,-0.9892767764961294,0.9314796964387287,3134.948007976936,27723.843558798395
J_PU_300_N,0.0,183.0,0.0,0.0,0.0,0.12797202797202797,1429.9999999999993,37.81534080237807,,,,,,,,,,,,,4.839305850933698,
J_PU_300_V,0.0,8100.0,0.0,0.0,0.0,5.664335664335664,1429.9999999999998,37.81534080237806,,,,,,,,,,,,,214.19878356591778,
J_SA_300_N,0.0,740.0,0.0,0.0,0.0,1.9132867132867133,414.5903415843913,20.01879982443604,0.9944055944055944,,,,2.0,740.0,133.75,200.0,702.25,342.0,-2.0511607517159463,0.42028866370151696,33.936664010145016,319.6645563265164
J_SA_300_V,0.0,41831.0,0.0,0.0,0.0,108.65454545454546,407.9166576501271,19.817384214057515,0.9944055944055944,,,,30.0,41831.0,8051.0,12060.5,38552.0,19422.0,-1.9879342084684577,0.3868385703400956,1906.4569762995106,17699.805842357222
J_SR_300_N,0.0,0.0,0.0,0.0,0.0,0.0,0,0,,,,,,,,,,,,,0.0,
J_SR_300_V,0.0,0.0,0.0,0.0,0.0,0.0,0,0,,,,,,,,,,,,,0.0,
J_SS_300_N,0.0,740.0,0.0,0.0,0.0,1.9132867132867133,414.5903415843913,20.01879982443604,0.9944055944055944,,,,2.0,740.0,133.75,200.0,702.25,342.0,-2.0511607517159463,0.42028866370151696,33.936664010145016,319.6645563265164
J_SS_300_V,0.0,41831.0,0.0,0.0,0.0,108.65454545454546,407.9166576501271,19.817384214057515,0.9944055944055944,,,,30.0,41831.0,8051.0,12060.5,38552.0,19422.0,-1.9879342084684577,0.3868385703400956,1906.4569762995106,17699.805842357222
E_QQ_60_N,2,85500,25.0,1000.0,2300.0,2269.390909090909,92.9248715501247,8.190616507456701,0.0,gilbrat,"loc=-265.94, scale=1091.67",0.9999999997064151,2,85500,25.0,1000.0,2300.0,2269.390909090909,92.9248715501247,8.190616507456701,5585.471908800909,5585.471908800909
E_QP_60_N,0,31581,0.0,0.0,0.0,156.4874125874126,190.64441947717071,13.015422507466527,0.9839160839160839,,,,560,31581,3213.5,7236.0,17579.5,9729.434782608696,0.38320587867186173,1.0691741075516585,1601.7811052321335,8323.52560695552
E_QS_60_N,0,3065,0.0,0.0,0.0,5.607692307692307,543.5738009853385,23.058564456186236,0.9972027972027973,,,,134,3065,1395.5,2410.0,3019.25,2004.75,0.09768289797744423,-1.1233212093099385,123.1982390253187,1373.3126313164578
E_OV_60_N,0,337012,4051.0,8000.0,19743.0,16711.781118881117,53.87321760687813,6.236750520167299,0.062237762237762236,johnsonsu,"a=-2.15, b=0.83, loc=1264.86, scale=1214.35",0.9999994302091121,122,337012,4833.0,8473.0,20520.0,17820.91498881432,51.86902760574382,6.147308732219651,28793.41842900031,29399.743356483505
E_CV_60_N,122,337012,5301.0,10530.0,22000.0,19542.796503496502,43.455509421231866,5.584078738598494,0.0,johnsonsu,"a=-2.23, b=0.84, loc=1175.39, scale=1310.09",0.9999999997064151,122,337012,5301.0,10530.0,22000.0,19542.796503496502,43.455509421231866,5.584078738598494,30473.87355356782,30473.87355356782
F_CV,0.0,268800.0,0.0,0.0,0.0,1301.8006993006993,452.1659740167888,19.604302960264498,0.8342657342657342,,,,210.0,268800.0,906.0,1589.0,4650.0,7854.7468354430375,77.65915247998554,8.220453493623904,10637.189056871652,25168.268517578326
D_CV,12623.0,12318199.0,148544.5,256123.0,482598.0,471576.0034965035,88.26582561057523,8.472563231760734,0.0,johnsonsu,"a=-1.72, b=0.81, loc=78957.23, scale=42067.67",0.9999999997064151,12623.0,12318199.0,148544.5,256123.0,482598.0,471576.0034965035,88.26582561057523,8.472563231760734,934701.7067105811,934701.7067105811
Equity_CV,12623.0,12318199.0,147797.25,256047.0,481149.5,470274.2027972028,88.53248946329934,8.488389776920295,0.0,johnsonsu,"a=-1.73, b=0.81, loc=77815.94, scale=41453.53",0.9999999997064151,12623.0,12318199.0,147797.25,256047.0,481149.5,470274.2027972028,88.53248946329934,8.488389776920295,934104.17624895,934104.17624895
I_SA_10000_P,0.0,81.71875,0.0,0.0,0.0,0.797073026255294,96.37760034237117,8.985426945689623,0.9699300699300699,,,,10.941176470588236,81.71875,17.193537414965988,20.07433628318584,24.753807106598984,26.50731226849001,2.64474526879162,1.8795843916313308,5.341564400068743,16.52398668396819
I_SA_10110_P,0.0,29.020408163265305,0.0,0.0,0.0,0.5990909646411348,30.978609274653138,5.608207148280933,0.9678321678321679,,,,13.725903614457831,29.020408163265305,16.704545454545453,17.95258670353727,19.75568181818182,18.623914770365708,2.818678313021985,1.6488342836528054,3.3383487075550784,3.278636352826367
I_SA_10120_P,0.0,35.6784140969163,0.0,0.0,0.0,0.7050268488732562,36.81770309594986,6.131660742453234,0.9727272727272728,,,,17.818181818181817,35.6784140969163,21.99486301369863,27.0,29.588223270440253,25.850984458686064,-0.9730033589823779,-0.14254022642099654,4.2908552968582585,5.021228542147211
I_SA_10140_P,0.0,33.0,0.0,0.0,0.0,0.15406192138949687,162.20806103668673,12.144529426606843,0.9916083916083916,,,,15.994629430719655,33.0,16.110119047619047,17.0,17.03905424661573,18.359045632248378,9.66046478545773,3.0512076094513274,1.7274288912124662,4.799977181209528
I_SA_10603_P,0.0,58.981481481481474,0.0,0.0,0.0,1.4786340528604538,27.437289914485877,5.342667768742208,0.9636363636363636,,,,7.1944444444444455,58.981481481481474,37.185609879032256,42.0,48.0,40.66243645366248,2.6708179592570533,-1.387327670313098,7.879245132634732,10.72274155489505
I_SA_10605_P,0.0,52.0,0.0,0.0,0.0,1.6581374871601466,18.97612225633867,4.50244386760241,0.9531468531468531,,,,19.11111111111111,52.0,30.663182346109174,33.771929824561404,40.03144841269841,35.39009860655238,0.26495633483299574,0.28206490505392634,7.593022637478892,6.035837228315824
I_SA_30000_P,0.0,81.71875,0.0,0.0,0.0,0.797073026255294,96.37760034237117,8.985426945689623,0.9699300699300699,,,,10.941176470588236,81.71875,17.193537414965988,20.07433628318584,24.753807106598984,26.50731226849001,2.64474526879162,1.8795843916313308,5.341564400068743,16.52398668396819
I_SA_40000_P,0.0,81.71875,0.0,0.0,0.0,0.797073026255294,96.37760034237117,8.985426945689623,0.9699300699300699,,,,10.941176470588236,81.71875,17.193537414965988,20.07433628318584,24.753807106598984,26.50731226849001,2.64474526879162,1.8795843916313308,5.341564400068743,16.52398668396819
I_SA_40130_P,0.0,827.138036809816,0.0,0.0,0.0,2.218829654036332,400.1242484933019,19.610440268548565,0.993006993006993,,,,45.0,827.138036809816,64.5452380952381,143.48333333333335,626.1127049180327,317.2926405271955,-1.3625824534164064,0.8058636843225365,36.970843181500186,325.4932980643692
I_SA_40310_P,0.0,355.19753086419746,0.0,0.0,0.0,10.609944524685373,23.44593864287569,3.4305614091394947,0.8342657342657342,,,,26.06078576723499,355.19753086419746,45.976539589442815,62.517811704834614,72.13650793650794,64.01780873544338,57.72438726415364,5.715683604885856,26.201599921979895,26.8964322377843
I_SA_40320_P,0.0,570.560606060606,42.04954033771107,53.93315257841574,64.36403702431765,50.8153971211707,86.32561463035077,4.135946852677087,0.12937062937062938,mielke,"k=5.26, s=7.88, loc=-0.25, scale=61.79",0.9996041093270095,5.79963789981895,570.560606060606,48.285223367697604,56.99689403894397,66.08059610705597,58.36627942431654,286.14299274927424,11.937980645038303,27.68734185357746,20.964734362229827
I_SA_40330_P,0.0,610.2045454545455,0.0,0.0,0.0,21.460735917581655,13.268468378907013,3.791808244039448,0.9335664335664335,,,,109.78598774885143,610.2045454545455,265.7187861095907,350.3571428571428,367.39112388250317,323.04055118043965,1.450852157551863,0.2366734764457806,82.60966557910164,72.7036763746919
K_SA_330_P,0.0,264.0,0.0,0.0,0.0,0.6923847789637263,351.5470136434263,18.1082225523685,0.9958041958041958,,,,80.3157894736842,264.0,136.44444444444443,144.68888888888887,203.2125,165.0183723196881,-0.4916919338821657,0.5155997464707143,11.36901224679252,66.33815197395131
J_SA_200_P,0.0,3140.0,0.0,0.0,0.0,14.613084498168115,195.2816846493566,13.404053185046505,0.990909090909091,,,,705.3125,3140.0,987.4444444444445,1200.0,2400.5,1607.4392947984925,-1.1109865965688006,0.6837017353218705,169.36747568677205,801.3803060254636
J_SA_300_P,0.0,70.4,0.0,0.0,0.0,0.30321833571833573,202.5315626635651,14.198339456102943,0.9944055944055944,,,,15.0,70.4,54.298629343629344,59.5,60.15125,54.20027750965251,6.075800802595436,-2.2967856728179297,4.2077212496276255,16.606554094549185
G_VA_NI,-10539.0,122326.0,0.0,0.0,1493.75,1675.0797202797203,161.52846837327616,10.669121337128134,0.6533052039381153,,,,35.0,122326.0,1393.0,2408.0,4632.0,4908.957403651116,66.26723974153748,7.007625418657672,6066.840890308713,9515.105727862907
G_VA_I,-22010.0,644.0,0.0,0.0,0.0,-676.3188811188811,22.841358775803936,-4.447857244274978,,,,,,,,,,,,,2356.5372831387795,
H_FO_V,0.0,204210.0,1501.25,3442.0,7376.25,8018.261538461538,55.55667354253317,6.664512697987625,0.002097902097902098,kappa3,"a=1.55, loc=57.00, scale=3976.57",0.9999999995961902,57.0,204210.0,1511.5,3451.0,7378.0,8035.118430273301,55.46135725361894,6.6593651192189816,17218.2520509726,17232.421985407604
H_LM_V,0.0,329507.0,2328.25,3800.0,6082.75,6783.3216783216785,206.27862396879007,12.457008231536733,0.03146853146853147,loglaplace,"c=1.60, loc=-2.86, scale=3877.86",0.9999999833989651,66.0,329507.0,2425.0,3875.0,6160.0,7003.718411552347,201.28134495583046,12.322976698177861,16617.247413026736,16839.433173310685
H_SL_V,0.0,24024.0,0.0,0.0,0.0,116.99090909090908,207.79635070219254,13.936625340889815,0.9832167832167832,,,,482.0,24024.0,825.5,3683.0,9765.5,6970.708333333333,-0.2507622961791558,1.078347799521923,1335.2991028638642,7805.6125151917995
Leased_price,-1.0,24.25,-1.0,-1.0,0.39628787878787874,0.012380503055410602,19.22315696234976,3.2244741579352127,0.0,,,,0.1,24.25,1.6528343079922025,2.4145454545454546,3.5644444444444447,2.9446978729407007,24.21502078583612,3.6751356692157326,2.0788594328559302,2.2966590502235915
F_OV_S,0.0,70523.0,0.0,0.0,0.0,441.54475524475527,267.65837354172663,14.981517375530233,0.8853146853146853,,,,210.0,70523.0,759.75,1303.5,2712.0,3850.0548780487807,31.237521845679836,5.228602204882052,3242.8034867855913,8887.461950254152
F_OV_L,0.0,268800.0,0.0,0.0,0.0,566.2804195804196,1021.9358564372407,29.934675002371367,0.9783216783216783,,,,2240.0,268800.0,8500.0,15000.0,27700.0,26121.967741935485,27.205648769594355,5.075138209345678,7723.1399376961335,46382.790086039364
F_CV_S,0.0,70523.0,0.0,0.0,0.0,585.8475524475524,182.9403302259426,12.52510784455614,0.8552447552447553,,,,210.0,70523.0,739.5,1297.0,2712.0,4047.159420289855,25.82356482255735,4.824546792245212,3832.8510414839557,9371.85469871782
F_CV_L,0.0,268800.0,0.0,0.0,0.0,715.9531468531469,606.1109675932076,23.748590825805167,0.9769230769230769,,,,4000.0,268800.0,8500.0,15000.0,25000.0,31024.636363636364,13.019617439171439,3.689666191469315,9894.781571323307,58330.48456843674
M_S_1600_FI_BU_N,0.0,0.0,0.0,0.0,0.0,0.0,0,0,,,,,,,,,,,,,0.0,
M_S_1600_FI_BU_V,0.0,0.0,0.0,0.0,0.0,0.0,0,0,,,,,,,,,,,,,0.0,
M_S_1700_FI_BU_N,0.0,1700.0,0.0,0.0,0.0,2.3111888111888113,748.4933155808119,26.424739490231353,0.9944055944055944,,,,1.0,1700.0,1.0,1.0,700.0,413.125,1.1701942536699796,1.4327200792345614,54.48638302277774,641.9420172970675
M_S_1700_FI_BU_V,0.0,1855.0,0.0,0.0,0.0,6.927972027972028,210.8015136371814,14.185409004042796,0.9944055944055944,,,,1066.0,1855.0,1073.5,1175.5,1241.75,1238.375,6.151902984988137,2.385877885365242,94.17100855957358,259.8576189817361
M_S_23112_FI_BU_N,0.0,25.0,0.0,0.0,0.0,0.03822377622377623,711.651043957201,25.20338070739509,0.9965034965034965,,,,0.15,25.0,8.81,10.2,10.5,10.931999999999999,2.333172106903371,0.8880903334098776,0.8001221427014463,8.935679604820217
M_S_23112_FI_BU_V,0.0,961.0,0.0,0.0,0.0,1.8832167832167832,502.27086007472656,21.33318094632789,0.9965034965034965,,,,293.0,961.0,326.0,548.0,565.0,538.6,1.2554319098780535,1.1180903369024344,34.79524730866813,266.79823837499373
M_S_23113_FI_BU_N,0.0,54.0,0.0,0.0,0.0,0.11475524475524475,457.6494166243743,20.894288626519497,0.9937062937062937,,,,0.38,54.0,2.09,3.25,38.11,18.233333333333334,-1.1780647653519742,0.7726925315051673,2.120822203530807,20.77926129582089
M_S_23113_FI_BU_V,0.0,3240.0,0.0,0.0,0.0,6.3307692307692305,519.1314597398787,22.098174212107484,0.9937062937062937,,,,65.0,3240.0,99.0,195.0,1819.0,1005.8888888888889,-0.4103000651990749,1.0154419887421227,120.01608985365486,1200.7351336206962
M_S_2318_FI_BU_N,0.0,17.5,0.0,0.0,0.0,0.028384615384615383,669.1201585440339,25.580851048616445,0.9965034965034965,,,,0.46,17.5,3.0,3.27,16.36,8.118,-3.1210346572944196,0.5342109842315417,0.6439968620541379,8.128568139592605
M_S_2318_FI_BU_V,0.0,1712.0,0.0,0.0,0.0,2.730769230769231,648.5329559050102,24.858942186176918,0.9965034965034965,,,,111.0,1712.0,157.0,622.0,1303.0,781.0,-2.120056294851211,0.4721065474448625,59.399510534617754,707.6019361194541
M_S_2322_FI_BU_N,0.0,28.0,0.0,0.0,0.0,0.11333566433566433,315.64757219875605,16.897795245614365,0.9874125874125874,,,,0.7,28.0,2.9299999999999997,6.0,9.035,9.003888888888888,1.1570613964736465,1.5227200128223508,1.4206687799350342,9.213986899011925
M_S_2322_FI_BU_V,0.0,32919.0,0.0,0.0,0.0,117.87622377622378,324.17136793804224,17.043042318526137,0.9874125874125874,,,,719.0,32919.0,2953.75,6168.0,9766.0,9364.611111111111,1.45535152107806,1.553202800460373,1483.8877612871188,9664.642759222852
M_S_2323_FI_BU_N,0.0,8.0,0.0,0.0,0.0,0.03011888111888112,242.700197359192,15.437549710461548,0.9944055944055944,,,,0.7,8.0,4.79,6.0,7.1625,5.383749999999999,-0.023829803337456212,-1.1076981532207306,0.44220460465652434,2.641773957562824
M_S_2323_FI_BU_V,0.0,7816.0,0.0,0.0,0.0,29.425174825174825,242.70510711170252,15.43771125922769,0.9944055944055944,,,,683.0,7816.0,4679.5,5862.0,6997.75,5259.75,-0.02333458792319476,-1.1077896578733204,432.0283806523451,2581.226992287638
M_S_23312_FI_BU_N,0.0,12.0,0.0,0.0,0.0,0.014405594405594406,1033.4751533610795,30.817512786635067,0.9972027972027973,,,,2.3,12.0,2.3,3.15,6.0,5.15,3.346182474797004,1.83007189159991,0.3451992505378592,4.636449791237544
M_S_23312_FI_BU_V,0.0,495.0,0.0,0.0,0.0,0.6664335664335664,824.2867631719483,27.67454567603318,0.9972027972027973,,,,87.0,495.0,92.25,185.5,331.5,238.25,-0.6100547393549611,0.9841553977875921,15.36866498459803,192.4463128598034
M_S_2342_FI_BU_N,0.0,29.0,0.0,0.0,0.0,0.02727272727272727,1157.5613484989635,33.250936397089376,,,,,,,,,,,,,0.8110228893855724,
M_S_2342_FI_BU_V,0.0,1056.0,0.0,0.0,0.0,0.9608391608391609,1211.3536749442524,34.0976695497935,,,,,,,,,,,,,29.15823732762132,
M_S_2343_FI_BU_N,0.0,50.0,0.0,0.0,0.0,0.13356643356643358,334.2919858793176,17.7313856698399,0.9958041958041958,,,,16.0,50.0,25.25,31.5,37.0,31.833333333333332,-0.20431223448360125,0.3131641927703939,2.1765157940000592,11.956866925188498
M_S_2343_FI_BU_V,0.0,6185.0,0.0,0.0,0.0,14.258741258741258,409.1427575839753,19.163323128357014,0.9958041958041958,,,,1608.0,6185.0,2655.5,3306.5,3485.75,3398.3333333333335,2.591364306551986,1.2361398072438654,237.90985153367848,1541.53737115474
M_S_2344_FI_BU_N,0.0,542.0,0.0,0.0,0.0,1.43006993006993,410.8485407495778,19.913621364511243,0.9937062937062937,,,,12.0,542.0,12.0,149.0,512.0,227.22222222222223,-1.7025191924175656,0.6250551988085852,24.93213331252764,230.90516331265624
M_S_2344_FI_BU_V,0.0,6501.0,0.0,0.0,0.0,17.011888111888112,406.5006742692695,19.78499470525245,0.9937062937062937,,,,144.0,6501.0,144.0,1791.0,6006.0,2703.0,-1.6884358269147843,0.6017194605729894,294.8493902141542,2713.156464341856
M_S_2900_FI_BU_N,0.0,0.0,0.0,0.0,0.0,0.0,0,0,,,,,,,,,,,,,0.0,
M_S_2900_FI_BU_V,0.0,0.0,0.0,0.0,0.0,0.0,0,0,,,,,,,,,,,,,0.0,
M_S_3100_FI_BU_N,0.0,0.0,0.0,0.0,0.0,0.0,0,0,,,,,,,,,,,,,0.0,
M_S_3100_FI_BU_V,0.0,46929.0,0.0,0.0,0.0,77.92587412587413,656.2926167189321,24.744060108083584,0.9965034965034965,,,,8835.0,46929.0,9345.0,12400.0,33925.0,22286.8,-1.5272826416744447,0.8921858873409189,1601.193423914058,17240.03802780029
M_S_3350_FI_BU_N,0.0,6000.0,0.0,0.0,0.0,17.084965034965034,396.50038087319996,18.697342539107016,0.9034965034965035,,,,1.0,6000.0,1.0,3.75,19.0,177.0398550724638,35.70071821080029,5.661882451805586,235.36418364110008,741.144180003637
M_S_3350_FI_BU_V,0.0,45789.0,0.0,0.0,0.0,990.276923076923,38.513005219035584,5.586090793485754,0.9034965034965035,,,,1031.0,45789.0,4079.5,7522.5,13981.75,10261.565217391304,3.4070151129276844,1.6482931195228259,3984.5223427340698,8352.790294709575
M_S_3610_FI_BU_N,0.0,0.0,0.0,0.0,0.0,0.0,0,0,,,,,,,,,,,,,0.0,
M_S_3610_FI_BU_V,0.0,0.0,0.0,0.0,0.0,0.0,0,0,,,,,,,,,,,,,0.0,
M_S_3900_FI_BU_N,0.0,2.0,0.0,0.0,0.0,0.05174825174825175,19.275830656778624,4.402407051505776,0.9496503496503497,,,,1.0,2.0,1.0,1.0,1.0,1.0277777777777777,33.384489795918384,5.870056446254651,0.22782420722702182,0.16548879560577057
M_S_3900_FI_BU_V,0.0,800.0,0.0,0.0,0.0,13.457342657342657,36.2321235288528,5.500287934544357,0.9496503496503497,,,,135.0,800.0,173.5,280.0,280.0,267.27777777777777,7.089495027848117,1.9808789687884008,63.296987889856894,108.82085319812018
M_S_4200_FI_BU_N,0.0,1.0,0.0,0.0,0.0,0.009790209790209791,97.49750380150395,9.968006093513594,0.9902097902097902,,,,1.0,1.0,1.0,1.0,1.0,1.0,0,0,0.09849439375099392,0.0
M_S_4200_FI_BU_V,0.0,990.0,0.0,0.0,0.0,2.2153846153846155,690.189190932613,23.861138215618038,0.9902097902097902,,,,76.0,990.0,108.0,175.0,196.5,226.28571428571428,9.936818407535856,3.0135853435197677,31.596915253879686,234.81725417256476
M_S_4410_FI_BU_N,0.0,0.0,0.0,0.0,0.0,0.0,0,0,,,,,,,,,,,,,0.0,
M_S_4410_FI_BU_V,0.0,0.0,0.0,0.0,0.0,0.0,0,0,,,,,,,,,,,,,0.0,
